
graph gil {
1 -- 4;
1 -- 5;
1 -- 13;
1 -- 16;
1 -- 17;
1 -- 18;
1 -- 19;
1 -- 25;
1 -- 27;
1 -- 33;
1 -- 42;
1 -- 46;
1 -- 64;
1 -- 75;
1 -- 79;
1 -- 92;
1 -- 95;
1 -- 98;
2 -- 11;
2 -- 22;
2 -- 30;
2 -- 37;
2 -- 38;
2 -- 45;
2 -- 57;
2 -- 78;
2 -- 85;
2 -- 88;
2 -- 89;
2 -- 93;
3 -- 7;
3 -- 23;
3 -- 24;
3 -- 34;
3 -- 41;
3 -- 58;
3 -- 61;
3 -- 68;
3 -- 74;
3 -- 81;
3 -- 97;
4 -- 5;
4 -- 13;
4 -- 16;
4 -- 17;
4 -- 18;
4 -- 19;
4 -- 27;
4 -- 39;
4 -- 42;
4 -- 43;
4 -- 46;
4 -- 64;
4 -- 75;
4 -- 79;
4 -- 92;
4 -- 95;
5 -- 6;
5 -- 13;
5 -- 16;
5 -- 17;
5 -- 18;
5 -- 19;
5 -- 27;
5 -- 39;
5 -- 42;
5 -- 43;
5 -- 46;
5 -- 64;
5 -- 75;
5 -- 79;
5 -- 92;
5 -- 95;
6 -- 7;
6 -- 16;
6 -- 27;
6 -- 39;
6 -- 43;
6 -- 70;
7 -- 8;
7 -- 14;
7 -- 23;
7 -- 24;
7 -- 26;
7 -- 32;
7 -- 34;
7 -- 41;
7 -- 44;
7 -- 47;
7 -- 48;
7 -- 56;
7 -- 60;
7 -- 61;
7 -- 68;
7 -- 74;
7 -- 81;
7 -- 82;
7 -- 94;
7 -- 97;
8 -- 9;
8 -- 21;
8 -- 24;
8 -- 25;
8 -- 44;
8 -- 54;
8 -- 64;
8 -- 81;
8 -- 92;
8 -- 94;
9 -- 10;
9 -- 21;
9 -- 25;
9 -- 27;
9 -- 54;
9 -- 64;
9 -- 70;
9 -- 92;
9 -- 94;
10 -- 36;
10 -- 62;
10 -- 65;
10 -- 69;
10 -- 84;
10 -- 90;
10 -- 96;
10 -- 99;
11 -- 12;
11 -- 20;
11 -- 37;
11 -- 38;
11 -- 45;
11 -- 57;
11 -- 63;
11 -- 67;
11 -- 78;
11 -- 89;
12 -- 35;
12 -- 48;
12 -- 50;
12 -- 73;
12 -- 76;
12 -- 85;
12 -- 87;
12 -- 91;
12 -- 100;
13 -- 14;
13 -- 16;
13 -- 17;
13 -- 18;
13 -- 27;
13 -- 42;
13 -- 43;
13 -- 46;
13 -- 66;
13 -- 75;
13 -- 79;
13 -- 95;
13 -- 98;
14 -- 15;
14 -- 19;
14 -- 23;
14 -- 24;
14 -- 26;
14 -- 32;
14 -- 33;
14 -- 40;
14 -- 44;
14 -- 47;
14 -- 48;
14 -- 56;
14 -- 60;
14 -- 74;
14 -- 82;
14 -- 92;
15 -- 53;
15 -- 83;
16 -- 17;
16 -- 27;
16 -- 39;
16 -- 42;
16 -- 43;
16 -- 46;
16 -- 75;
16 -- 79;
17 -- 18;
17 -- 42;
17 -- 46;
17 -- 66;
17 -- 75;
17 -- 79;
17 -- 98;
18 -- 19;
18 -- 25;
18 -- 27;
18 -- 33;
18 -- 46;
18 -- 54;
18 -- 64;
18 -- 75;
18 -- 79;
18 -- 92;
18 -- 95;
18 -- 98;
19 -- 20;
19 -- 25;
19 -- 27;
19 -- 33;
19 -- 44;
19 -- 46;
19 -- 54;
19 -- 79;
19 -- 92;
19 -- 95;
19 -- 98;
20 -- 21;
20 -- 38;
20 -- 40;
20 -- 45;
20 -- 50;
20 -- 63;
20 -- 85;
20 -- 100;
21 -- 22;
21 -- 64;
21 -- 70;
22 -- 23;
22 -- 28;
22 -- 30;
22 -- 49;
22 -- 51;
22 -- 57;
22 -- 59;
22 -- 78;
22 -- 85;
22 -- 88;
22 -- 93;
23 -- 24;
23 -- 26;
23 -- 32;
23 -- 34;
23 -- 41;
23 -- 44;
23 -- 47;
23 -- 56;
23 -- 61;
23 -- 68;
23 -- 74;
23 -- 81;
23 -- 82;
23 -- 94;
23 -- 97;
24 -- 25;
24 -- 32;
24 -- 34;
24 -- 41;
24 -- 44;
24 -- 47;
24 -- 56;
24 -- 68;
24 -- 74;
24 -- 81;
24 -- 82;
24 -- 94;
24 -- 97;
25 -- 26;
25 -- 27;
25 -- 44;
25 -- 54;
25 -- 64;
25 -- 74;
25 -- 81;
25 -- 92;
25 -- 94;
25 -- 95;
26 -- 27;
26 -- 32;
26 -- 40;
26 -- 47;
26 -- 48;
26 -- 56;
26 -- 60;
26 -- 73;
26 -- 74;
26 -- 76;
26 -- 82;
27 -- 28;
27 -- 39;
27 -- 42;
27 -- 43;
27 -- 46;
27 -- 54;
27 -- 64;
27 -- 75;
27 -- 79;
27 -- 92;
27 -- 95;
28 -- 29;
28 -- 49;
28 -- 50;
28 -- 51;
28 -- 59;
28 -- 85;
28 -- 88;
28 -- 93;
29 -- 31;
29 -- 35;
29 -- 52;
29 -- 55;
29 -- 77;
29 -- 86;
29 -- 87;
30 -- 31;
30 -- 51;
30 -- 57;
30 -- 78;
30 -- 88;
30 -- 93;
31 -- 32;
31 -- 41;
31 -- 52;
31 -- 58;
31 -- 61;
31 -- 71;
31 -- 73;
31 -- 77;
31 -- 86;
32 -- 33;
32 -- 34;
32 -- 40;
32 -- 47;
32 -- 48;
32 -- 56;
32 -- 60;
32 -- 74;
32 -- 82;
33 -- 34;
33 -- 40;
33 -- 46;
33 -- 47;
33 -- 60;
33 -- 66;
33 -- 82;
33 -- 92;
33 -- 95;
33 -- 98;
34 -- 35;
34 -- 41;
34 -- 47;
34 -- 56;
34 -- 58;
34 -- 61;
34 -- 68;
34 -- 74;
34 -- 81;
34 -- 97;
35 -- 36;
35 -- 48;
35 -- 73;
35 -- 76;
35 -- 77;
35 -- 87;
35 -- 91;
36 -- 37;
36 -- 72;
36 -- 80;
36 -- 84;
36 -- 90;
37 -- 38;
37 -- 57;
37 -- 67;
37 -- 78;
37 -- 89;
38 -- 39;
38 -- 45;
38 -- 50;
38 -- 57;
38 -- 63;
38 -- 78;
38 -- 85;
38 -- 89;
38 -- 100;
39 -- 40;
39 -- 43;
39 -- 70;
39 -- 79;
40 -- 41;
40 -- 47;
40 -- 48;
40 -- 60;
40 -- 63;
40 -- 82;
41 -- 42;
41 -- 56;
41 -- 58;
41 -- 61;
41 -- 68;
41 -- 71;
41 -- 74;
41 -- 77;
41 -- 97;
42 -- 43;
42 -- 46;
42 -- 75;
42 -- 79;
43 -- 44;
43 -- 79;
44 -- 45;
44 -- 47;
44 -- 54;
44 -- 56;
44 -- 64;
44 -- 74;
44 -- 81;
44 -- 82;
44 -- 92;
44 -- 94;
45 -- 46;
45 -- 49;
45 -- 50;
45 -- 57;
45 -- 63;
45 -- 78;
45 -- 85;
45 -- 88;
45 -- 89;
45 -- 100;
46 -- 47;
46 -- 66;
46 -- 75;
46 -- 79;
46 -- 95;
46 -- 98;
47 -- 48;
47 -- 56;
47 -- 60;
47 -- 74;
47 -- 82;
48 -- 49;
48 -- 56;
48 -- 60;
48 -- 73;
48 -- 76;
48 -- 82;
48 -- 100;
49 -- 50;
49 -- 51;
49 -- 57;
49 -- 59;
49 -- 78;
49 -- 85;
49 -- 88;
49 -- 93;
50 -- 51;
50 -- 59;
50 -- 63;
50 -- 76;
50 -- 85;
50 -- 88;
50 -- 91;
50 -- 100;
51 -- 52;
51 -- 57;
51 -- 59;
51 -- 88;
51 -- 93;
52 -- 53;
52 -- 55;
52 -- 58;
52 -- 61;
52 -- 71;
52 -- 77;
52 -- 86;
53 -- 54;
53 -- 65;
53 -- 69;
53 -- 83;
54 -- 55;
54 -- 64;
54 -- 81;
54 -- 92;
54 -- 94;
55 -- 56;
55 -- 86;
55 -- 87;
56 -- 57;
56 -- 60;
56 -- 74;
56 -- 82;
56 -- 94;
56 -- 97;
57 -- 58;
57 -- 78;
57 -- 85;
57 -- 88;
57 -- 89;
57 -- 93;
58 -- 59;
58 -- 61;
58 -- 71;
58 -- 77;
58 -- 97;
59 -- 60;
59 -- 85;
59 -- 88;
59 -- 91;
60 -- 61;
60 -- 74;
60 -- 82;
61 -- 62;
61 -- 68;
61 -- 71;
61 -- 77;
61 -- 97;
62 -- 63;
62 -- 65;
62 -- 66;
62 -- 69;
62 -- 83;
62 -- 84;
62 -- 96;
62 -- 99;
63 -- 64;
63 -- 85;
63 -- 100;
64 -- 65;
64 -- 70;
64 -- 79;
64 -- 92;
64 -- 94;
65 -- 66;
65 -- 69;
65 -- 83;
65 -- 84;
65 -- 96;
65 -- 99;
66 -- 67;
66 -- 75;
66 -- 95;
66 -- 96;
66 -- 98;
66 -- 99;
67 -- 68;
67 -- 72;
67 -- 80;
67 -- 89;
68 -- 69;
68 -- 74;
68 -- 81;
68 -- 94;
68 -- 97;
69 -- 70;
69 -- 83;
69 -- 84;
69 -- 96;
69 -- 99;
70 -- 71;
71 -- 72;
71 -- 77;
72 -- 73;
72 -- 80;
72 -- 90;
73 -- 74;
73 -- 76;
73 -- 77;
73 -- 87;
73 -- 91;
74 -- 75;
74 -- 81;
74 -- 82;
74 -- 94;
74 -- 97;
75 -- 76;
75 -- 79;
75 -- 95;
75 -- 98;
76 -- 77;
76 -- 91;
76 -- 100;
77 -- 78;
77 -- 86;
78 -- 79;
78 -- 85;
78 -- 88;
78 -- 89;
78 -- 93;
79 -- 80;
79 -- 92;
79 -- 95;
80 -- 81;
80 -- 90;
81 -- 82;
81 -- 94;
81 -- 97;
82 -- 83;
83 -- 84;
84 -- 85;
84 -- 90;
84 -- 96;
84 -- 99;
85 -- 86;
85 -- 88;
85 -- 91;
85 -- 100;
86 -- 87;
87 -- 88;
87 -- 91;
88 -- 89;
88 -- 93;
89 -- 90;
90 -- 91;
90 -- 96;
90 -- 99;
91 -- 92;
91 -- 100;
92 -- 93;
92 -- 94;
92 -- 95;
93 -- 94;
94 -- 95;
94 -- 97;
95 -- 96;
95 -- 98;
96 -- 97;
96 -- 98;
96 -- 99;
97 -- 98;
98 -- 99;
99 -- 100;


}
