
graph gil {
1 -- 3;
1 -- 5;
1 -- 28;
1 -- 33;
1 -- 36;
1 -- 38;
1 -- 47;
1 -- 88;
1 -- 96;
2 -- 8;
2 -- 9;
2 -- 15;
2 -- 19;
2 -- 30;
2 -- 34;
2 -- 48;
2 -- 53;
2 -- 54;
2 -- 56;
2 -- 59;
2 -- 68;
2 -- 76;
3 -- 4;
3 -- 33;
3 -- 36;
3 -- 45;
3 -- 47;
3 -- 49;
3 -- 87;
3 -- 88;
3 -- 96;
4 -- 6;
4 -- 20;
4 -- 21;
4 -- 26;
4 -- 45;
4 -- 49;
4 -- 73;
4 -- 75;
4 -- 78;
4 -- 80;
4 -- 90;
4 -- 92;
4 -- 97;
5 -- 6;
5 -- 16;
5 -- 28;
5 -- 38;
5 -- 41;
5 -- 46;
5 -- 47;
5 -- 55;
5 -- 81;
5 -- 88;
5 -- 98;
6 -- 7;
6 -- 14;
6 -- 20;
6 -- 26;
6 -- 37;
6 -- 49;
6 -- 75;
6 -- 80;
6 -- 87;
6 -- 90;
6 -- 92;
6 -- 97;
6 -- 100;
7 -- 43;
7 -- 44;
7 -- 66;
7 -- 86;
7 -- 94;
8 -- 9;
8 -- 15;
8 -- 23;
8 -- 34;
8 -- 54;
8 -- 59;
8 -- 60;
8 -- 68;
8 -- 91;
9 -- 10;
9 -- 12;
9 -- 19;
9 -- 48;
9 -- 53;
9 -- 54;
9 -- 56;
9 -- 68;
9 -- 76;
9 -- 85;
10 -- 12;
10 -- 18;
10 -- 56;
11 -- 35;
11 -- 51;
11 -- 63;
11 -- 65;
11 -- 67;
11 -- 85;
12 -- 13;
12 -- 19;
12 -- 51;
12 -- 53;
12 -- 56;
12 -- 68;
12 -- 76;
12 -- 85;
13 -- 17;
13 -- 22;
13 -- 29;
13 -- 42;
13 -- 70;
13 -- 71;
13 -- 74;
13 -- 82;
13 -- 89;
13 -- 95;
14 -- 15;
14 -- 26;
14 -- 27;
14 -- 30;
14 -- 37;
14 -- 72;
14 -- 75;
14 -- 83;
14 -- 87;
14 -- 92;
14 -- 96;
14 -- 99;
14 -- 100;
15 -- 16;
15 -- 19;
15 -- 23;
15 -- 34;
15 -- 54;
15 -- 59;
15 -- 60;
15 -- 68;
15 -- 76;
15 -- 91;
15 -- 94;
16 -- 17;
16 -- 41;
16 -- 46;
16 -- 50;
16 -- 55;
16 -- 77;
16 -- 81;
16 -- 84;
16 -- 98;
17 -- 18;
17 -- 22;
17 -- 29;
17 -- 39;
17 -- 42;
17 -- 71;
17 -- 74;
17 -- 82;
17 -- 84;
18 -- 19;
18 -- 48;
18 -- 53;
18 -- 56;
18 -- 92;
19 -- 20;
19 -- 30;
19 -- 48;
19 -- 53;
19 -- 54;
19 -- 56;
19 -- 68;
19 -- 76;
20 -- 21;
20 -- 26;
20 -- 49;
20 -- 62;
20 -- 73;
20 -- 75;
20 -- 78;
20 -- 80;
20 -- 90;
20 -- 92;
20 -- 93;
20 -- 97;
21 -- 22;
21 -- 62;
21 -- 73;
21 -- 78;
21 -- 80;
21 -- 92;
21 -- 93;
21 -- 97;
22 -- 23;
22 -- 29;
22 -- 39;
22 -- 42;
22 -- 70;
22 -- 71;
22 -- 74;
22 -- 82;
22 -- 95;
23 -- 24;
23 -- 34;
23 -- 42;
23 -- 44;
23 -- 59;
23 -- 60;
23 -- 91;
23 -- 94;
24 -- 25;
24 -- 42;
24 -- 57;
24 -- 58;
24 -- 69;
24 -- 70;
24 -- 89;
24 -- 95;
25 -- 29;
25 -- 31;
25 -- 32;
25 -- 40;
25 -- 57;
25 -- 64;
25 -- 69;
25 -- 70;
25 -- 89;
25 -- 95;
26 -- 27;
26 -- 37;
26 -- 49;
26 -- 75;
26 -- 80;
26 -- 87;
26 -- 90;
26 -- 92;
26 -- 97;
26 -- 99;
26 -- 100;
27 -- 28;
27 -- 33;
27 -- 38;
27 -- 61;
27 -- 71;
27 -- 72;
27 -- 79;
27 -- 83;
27 -- 88;
27 -- 96;
27 -- 99;
28 -- 29;
28 -- 46;
28 -- 47;
28 -- 55;
28 -- 81;
28 -- 88;
28 -- 98;
29 -- 30;
29 -- 31;
29 -- 32;
29 -- 39;
29 -- 40;
29 -- 42;
29 -- 64;
29 -- 69;
29 -- 70;
29 -- 74;
29 -- 82;
29 -- 89;
29 -- 95;
30 -- 31;
30 -- 37;
30 -- 48;
30 -- 53;
30 -- 54;
30 -- 56;
30 -- 72;
30 -- 99;
30 -- 100;
31 -- 32;
31 -- 40;
31 -- 57;
31 -- 64;
31 -- 69;
31 -- 70;
31 -- 82;
31 -- 89;
31 -- 95;
32 -- 33;
32 -- 40;
32 -- 57;
32 -- 64;
32 -- 69;
32 -- 70;
32 -- 82;
32 -- 89;
32 -- 95;
33 -- 34;
33 -- 36;
33 -- 38;
33 -- 47;
33 -- 61;
33 -- 79;
33 -- 87;
33 -- 88;
33 -- 96;
34 -- 35;
34 -- 42;
34 -- 54;
34 -- 59;
34 -- 60;
34 -- 91;
35 -- 36;
35 -- 51;
35 -- 52;
35 -- 63;
35 -- 65;
35 -- 67;
35 -- 85;
36 -- 37;
36 -- 45;
36 -- 49;
36 -- 75;
36 -- 80;
36 -- 87;
36 -- 90;
36 -- 96;
36 -- 97;
37 -- 38;
37 -- 48;
37 -- 75;
37 -- 87;
37 -- 92;
37 -- 96;
37 -- 97;
37 -- 99;
37 -- 100;
38 -- 39;
38 -- 46;
38 -- 55;
38 -- 61;
38 -- 79;
38 -- 83;
38 -- 88;
38 -- 96;
39 -- 40;
39 -- 82;
39 -- 84;
40 -- 41;
40 -- 57;
40 -- 64;
40 -- 69;
40 -- 70;
40 -- 89;
40 -- 95;
41 -- 42;
41 -- 46;
41 -- 50;
41 -- 55;
41 -- 77;
41 -- 81;
41 -- 98;
42 -- 43;
42 -- 60;
42 -- 70;
42 -- 74;
42 -- 89;
42 -- 95;
43 -- 44;
43 -- 59;
43 -- 66;
43 -- 86;
43 -- 91;
43 -- 94;
44 -- 45;
44 -- 58;
44 -- 66;
44 -- 91;
44 -- 94;
45 -- 46;
45 -- 49;
45 -- 75;
45 -- 78;
45 -- 80;
45 -- 90;
45 -- 97;
46 -- 47;
46 -- 50;
46 -- 55;
46 -- 77;
46 -- 81;
46 -- 98;
47 -- 48;
47 -- 55;
47 -- 88;
47 -- 98;
48 -- 49;
48 -- 53;
48 -- 54;
48 -- 56;
48 -- 100;
49 -- 50;
49 -- 75;
49 -- 78;
49 -- 80;
49 -- 87;
49 -- 90;
49 -- 92;
49 -- 97;
50 -- 51;
50 -- 55;
50 -- 81;
50 -- 98;
51 -- 52;
51 -- 65;
51 -- 67;
51 -- 85;
52 -- 53;
52 -- 59;
52 -- 68;
52 -- 76;
52 -- 86;
53 -- 54;
53 -- 56;
53 -- 68;
53 -- 76;
54 -- 55;
54 -- 68;
54 -- 72;
54 -- 99;
55 -- 56;
55 -- 77;
55 -- 81;
55 -- 88;
55 -- 98;
56 -- 57;
56 -- 68;
56 -- 76;
57 -- 58;
57 -- 64;
57 -- 69;
57 -- 70;
57 -- 89;
57 -- 95;
58 -- 59;
59 -- 60;
59 -- 68;
59 -- 76;
59 -- 86;
59 -- 91;
59 -- 94;
60 -- 61;
60 -- 91;
60 -- 94;
61 -- 62;
61 -- 72;
61 -- 79;
61 -- 83;
61 -- 88;
61 -- 96;
62 -- 63;
62 -- 73;
62 -- 92;
62 -- 93;
63 -- 64;
63 -- 65;
63 -- 67;
64 -- 65;
64 -- 69;
64 -- 70;
64 -- 82;
64 -- 89;
64 -- 95;
65 -- 66;
65 -- 67;
66 -- 67;
66 -- 86;
66 -- 94;
67 -- 68;
67 -- 85;
68 -- 69;
68 -- 76;
69 -- 70;
69 -- 82;
69 -- 89;
69 -- 95;
70 -- 71;
70 -- 74;
70 -- 82;
70 -- 89;
70 -- 95;
71 -- 72;
71 -- 74;
71 -- 79;
71 -- 83;
72 -- 73;
72 -- 79;
72 -- 83;
72 -- 99;
73 -- 74;
73 -- 78;
73 -- 80;
73 -- 93;
74 -- 75;
74 -- 82;
74 -- 89;
74 -- 95;
75 -- 76;
75 -- 80;
75 -- 87;
75 -- 90;
75 -- 92;
75 -- 97;
75 -- 100;
76 -- 77;
76 -- 85;
77 -- 78;
77 -- 84;
78 -- 79;
78 -- 80;
78 -- 90;
78 -- 97;
79 -- 80;
79 -- 83;
79 -- 88;
79 -- 96;
80 -- 81;
80 -- 87;
80 -- 90;
80 -- 92;
80 -- 97;
81 -- 82;
81 -- 98;
82 -- 83;
82 -- 89;
82 -- 95;
83 -- 84;
83 -- 96;
83 -- 99;
84 -- 85;
85 -- 86;
86 -- 87;
86 -- 94;
87 -- 88;
87 -- 90;
87 -- 92;
87 -- 96;
87 -- 97;
87 -- 99;
87 -- 100;
88 -- 89;
88 -- 96;
89 -- 90;
89 -- 95;
90 -- 91;
90 -- 92;
90 -- 97;
91 -- 92;
91 -- 94;
92 -- 93;
92 -- 97;
92 -- 100;
93 -- 94;
94 -- 95;
95 -- 96;
96 -- 97;
96 -- 99;
97 -- 98;
97 -- 100;
98 -- 99;
99 -- 100;


}
